…
output: no se ven todas las columnas, pero espero que pilles la idea. Además, obviamente sería conveniente usar ```filter()``` antes para los ácidos grasos que no sea ni normales ni homocedásticos.

```
A tibble: 112 x 9
   tratamiento acido_graso valores valores_arcoseno valores_cuadrado
   <chr>       <chr>         <dbl>            <dbl>            <dbl>
 1 Levadura    C 16:0        10.4           0.0323          109.
 2 Levadura    C 16:1n-7      2.45          0.0157            6.00
 3 Levadura    C 18:0         5.49          0.0234           30.1
 4 Levadura    C 18:1n-9     21.0           0.0459          442.
 5 Levadura    C 18:3n-6      0.31          0.00557           0.0961
 6 Levadura    C 20:5n-3      2.07          0.0144            4.28
 7 Levadura    C 22:6n-3      0.01          0.00100           0.0001
 8 Levadura    C 16:0        10.5           0.0324          110.
 9 Levadura    C 16:1n-7      2.46          0.0157            6.05
10 Levadura    C 18:0         5.52          0.0235           30.5
# ... with 102 more rows, and 4 more variables: valores_raiz <dbl>,
#   valores_log <dbl>, valores_log_mas_1 <dbl>, valores_inversa <dbl>
```
…
